# Single command script
script:  echo "Building a laptop"

# Multiple command scripts
script: 
    - echo "Building a laptop"
    - mkdir build
    - touch build/computer.txt
__________________________________
! After pipeline success Docker container destroys itself
________________________________
Exit code 1 = FAIL
Exit code 0 = SUCCESS
____________________________________
Test -f => checks if file exists
____________________________________
Artifacts => used for defining path that other stage commands can use these paths
____________________________________
Grep => allows us to search specific string in a file
____________________________________
Assingn value to a variable => 
    my_variable=laptop.txt
    echo "Mainboard" >> build/$my_variable
! Warning : Every variable can be used in its stage itself
! Warning : If you put variables out of stages they will become global variable

DevOps is NOT
- Standart or specification
- Tool or a particular software
- Something you do with a tool or software
Devops is a cultural thing
